• admiralverse
…
admiralverse <- c(
  "admiral",
  "admiraldev",
  "admiralonco",
  "admiralophtha",
  "admiralpeds",
  "admiralvaccine"
)

# Example: https://pharmaverse.github.io/admiral/reference/queries.html
template <- "https://pharmaverse.github.io/{package}/reference/{topic}.html"
docs <- dverse::document_universe(admiralverse, template)
docs
#> # A tibble: 344 × 7
#>    topic                               alias title concept type  keyword package
#>    <chr>                               <chr> <chr> <chr>   <chr> <chr>   <chr>  
#>  1 <a href=https://pharmaverse.github… %>%   Pipe… reexpo… help  NA      admiral
#>  2 <a href=https://pharmaverse.github… %not… Nega… dev_ut… help  NA      admira…
#>  3 <a href=https://pharmaverse.github… %or%  Or    dev_ut… help  NA      admira…
#>  4 <a href=https://pharmaverse.github… adbc… Crea… NA      vign… NA      admira…
#>  5 <a href=https://pharmaverse.github… adce  Crea… NA      vign… NA      admira…
#>  6 <a href=https://pharmaverse.github… add_… Add … quo     help  NA      admira…
#>  7 <a href=https://pharmaverse.github… adfa… Crea… NA      vign… NA      admira…
#>  8 <a href=https://pharmaverse.github… adis  Crea… NA      vign… NA      admira…
#>  9 <a href=https://pharmaverse.github… admi… admi… intern… help  intern… admiral
#> 10 <a href=https://pharmaverse.github… admi… Lab … datase… help  datase… admiral
#> # ℹ 334 more rows
…
